{
  "project_info": {
    "project_number": "485499476535",
    "firebase_url": "https://mobiletest-8f5a0.firebaseio.com",
    "project_id": "mobiletest-8f5a0",
    "storage_bucket": "mobiletest-8f5a0.appspot.com"
  },
  "client": [
    {
      "client_info": {
        "mobilesdk_app_id": "1:485499476535:android:5420d3724241e033",
        "android_client_info": {
          "package_name": "mobiletest.digital.mwg"
        }
      },
      "oauth_client": [
        {
          "client_id": "485499476535-1ml2gk35b9m3bmcqk2b7ia51i45a0dtp.apps.googleusercontent.com",
          "client_type": 3
        }
      ],
      "api_key": [
        {
          "current_key": "AIzaSyAi69UIuTEh6LI9Dol9-z5gw2A5gXqDV5Y"
        }
      ],
      "services": {
        "analytics_service": {
          "status": 1
        },
        "appinvite_service": {
          "status": 1,
          "other_platform_oauth_client": []
        },
        "ads_service": {
          "status": 2
        }
      }
    }
  ],
  "configuration_version": "1"
}